﻿name_list_damerian = {

	dynasty_names = {
		"dynn_Fournier"
		{ "dynnp_du" "dynn_Dros" }
		{ "dynnp_sil" "dynn_Piemont" }
		{ "dynnp_sil" "dynn_Bage" }
		{ "dynnp_sil" "dynn_Montferrat" }
		{ "dynnp_sil" "dynn_Luxembourg" }
		{ "dynnp_d_" "dynn_Anjou" }
		"dynn_Chamillart"
		{ "dynnp_sil" "dynn_ChA_tillion" }
		{ "dynnp_d_" "dynn_Avaugour" }
		{ "dynnp_sil" "dynn_Dreaux" }
		{ "dynnp_sil" "dynn_Dreux" }
		{ "dynnp_sil" "dynn_Clermont" }
		{ "dynnp_sil" "dynn_Vitry" }
		{ "dynnp_sil" "dynn_Dampierre" }
		{ "dynnp_sil" "dynn_Sully" }
		{ "dynnp_sil" "dynn_Bourg" }
		{ "dynnp_sil" "dynn_Gironde" }
		{ "dynnp_d_" "dynn_Artois" }
		{ "dynnp_sil" "dynn_Valois" }
		{ "dynnp_sil" "dynn_Guines" }
		"dynn_Saint-Gilles"
		{ "dynnp_d_" "dynn_E_olienne" }
		{ "dynnp_sil" "dynn_Bessa" }
		{ "dynnp_sil" "dynn_Ramla" }
		{ "dynnp_d_" "dynn_Ibelin" }
		"dynn_Luneville"
		{ "dynnp_sil" "dynn_Cleriuex" }
		{ "dynnp_sil" "dynn_Valpergue" }
		{ "dynnp_sil" "dynn_Cuiseaux" }
		{ "dynnp_sil" "dynn_Joinville" }
		{ "dynnp_sil" "dynn_Vaudemont" }
		{ "dynnp_d_" "dynn_Hauteville" }
		{ "dynnp_sil" "dynn_Narbonne" }
		{ "dynnp_sil" "dynn_Bourgogne-ComtE_" }
		{ "dynnp_sil" "dynn_l_Aigle" }
		{ "dynnp_sil" "dynn_Flotte" }
		{ "dynnp_sil" "dynn_Vendome" }
		{ "dynnp_sil" "dynn_Champagne" }
		{ "dynnp_sil" "dynn_Namur" }
		{ "dynnp_sil" "dynn_Bissy" }
		{ "dynnp_d_" "dynn_Eu" }
		{ "dynnp_du" "dynn_Perche" }
		{ "dynnp_sil" "dynn_Boulogne" }
		"dynn_Puy_du_Fou"
		{ "dynnp_sil" "dynn_Preuilly" }
		{ "dynnp_sil" "dynn_Laval" }
		{ "dynnp_sil" "dynn_Salins" }
		{ "dynnp_sil" "dynn_ME_ziriac" }
		{ "dynnp_d_" "dynn_Oisy" }
		{ "dynnp_sil" "dynn_Barthe" }
		{ "dynnp_sil" "dynn_Fezensac" }
		{ "dynnp_sil" "dynn_Boisrobert" }
		{ "dynnp_sil" "dynn_Bourbon" }
		{ "dynnp_d_" "dynn_AngoulE_me" }
		"dynn_Le_Tellier"
		{ "dynnp_sil" "dynn_Talleyrand" }
		{ "dynnp_sil" "dynn_Batarnay" }
		{ "dynnp_sil" "dynn_Beaumont-au-Maine" }
		{ "dynnp_sil" "dynn_Hainaut" }
		{ "dynnp_sil" "dynn_Crecy" }
		{ "dynnp_sil" "dynn_Bellegarde" }
		{ "dynnp_sil" "dynn_St__Hilary" }
		{ "dynnp_d_" "dynn_Aubigny" }
		{ "dynnp_sil" "dynn_Albemarle" }
		{ "dynnp_sil" "dynn_Verre" }
		{ "dynnp_d_" "dynn_Evreux" }
		{ "dynnp_sil" "dynn_Mellent" }
		{ "dynnp_sil" "dynn_Baalun" }
		{ "dynnp_sil" "dynn_Vernon" }
		"dynn_Estouteville"
		"dynn_Nicolay"
		{ "dynnp_of" "dynn_Burgundy" }
		{ "dynnp_sil" "dynn_Vexin-Amiens" }
		{ "dynnp_sil" "dynn_Nimes" }
		{ "dynnp_sil" "dynn_Tilly" }
		{ "dynnp_sil" "dynn_Mons" }
		{ "dynnp_sil" "dynn_Hainault" }
		{ "dynnp_sil" "dynn_Montaigu" }
		{ "dynnp_sil" "dynn_Benserade" }
		"dynn_Barrois"
		{ "dynnp_sil" "dynn_Harcourt" }
		"dynn_Matfrieding"
		{ "dynnp_sil" "dynn_Carolui" }
		{ "dynnp_sil" "dynn_Lagery" }
		"dynn_Litpolden"
		{ "dynnp_von" "dynn_Franken" }
		{ "dynnp_sil" "dynn_Maurienne" }
		{ "dynnp_sil" "dynn_Vienne" }
		{ "dynnp_sil" "dynn_Foix" }
		{ "dynnp_sil" "dynn_Lorraine" }
		{ "dynnp_sil" "dynn_Vermandois" }
		{ "dynnp_sil" "dynn_Blois" }
		{ "dynnp_sil" "dynn_Gastinois" }
		{ "dynnp_sil" "dynn_Guincamp" }
		{ "dynnp_sil" "dynn_Bretagne" }
		{ "dynnp_sil" "dynn_Boullion" }
		{ "dynnp_sil" "dynn_Longwy" }
		{ "dynnp_sil" "dynn_Macon" }
		{ "dynnp_sil" "dynn_Roucy" }
		{ "dynnp_sil" "dynn_Heismes" }
		{ "dynnp_sil" "dynn_SE_mur-en-Brionnais" }
		"dynn_Fergant"
		{ "dynnp_sil" "dynn_Bolougne" }
		{ "dynnp_d_" "dynn_Antoing" }
		{ "dynnp_d_" "dynn_Espagne" }
		{ "dynnp_d_" "dynn_Arc" }
		"dynn_Gladius_Christi"
		{ "dynnp_sil" "dynn_Mortemart" }
		{ "dynnp_sil" "dynn_la_Rochefoucauld" }
		{ "dynnp_sil" "dynn_Caumont" }
		{ "dynnp_sil" "dynn_Serrant" }
		{ "dynnp_sil" "dynn_la_Roche_Aymon" }
		{ "dynnp_sil" "dynn_LE_vis" }
		{ "dynnp_sil" "dynn_Villeneuve" }
		{ "dynnp_sil" "dynn_Beauffremont" }
		{ "dynnp_sil" "dynn_Polignac" }
		{ "dynnp_sil" "dynn_Riencourt" }
		{ "dynnp_sil" "dynn_Menthon" }
		{ "dynnp_d_" "dynn_Argouges" }
		{ "dynnp_sil" "dynn_Noailles" }
		{ "dynnp_sil" "dynn_Mostuejouls" }
		{ "dynnp_sil" "dynn_Briey" }
		{ "dynnp_sil" "dynn_VoguE_" }
		{ "dynnp_sil" "dynn_Tournemire" }
		{ "dynnp_sil" "dynn_CuriE_res" }
		{ "dynnp_sil" "dynn_Beauvau" }
		"dynn_Chabot"
		{ "dynnp_sil" "dynn_Menou" }
		{ "dynnp_sil" "dynn_Saint-Gilles" }
		{ "dynnp_sil" "dynn_Montrichard" }
		{ "dynnp_d_" "dynn_Abzac" }
		{ "dynnp_sil" "dynn_Loubens" }
		{ "dynnp_sil" "dynn_PontchA_teau" }
		{ "dynnp_sil" "dynn_VitrE_" }
		{ "dynnp_d_" "dynn_Estouville" }
		{ "dynnp_sil" "dynn_Mauvoisin" }
		{ "dynnp_sil" "dynn_Blaison" }
		{ "dynnp_sil" "dynn_Craon" }
		{ "dynnp_sil" "dynn_Mayenne" }
		{ "dynnp_sils" "dynn_Roches" }
		{ "dynnp_sil" "dynn_SablE_" }
		{ "dynnp_d_" "dynn_Avesnes" }
		"dynn_ClE_ment"
		{ "dynnp_du" "dynn_Perche" }
		{ "dynnp_sils" "dynn_Barres" }
		{ "dynnp_sil" "dynn_Campistron" }
		{ "dynnp_sil" "dynn_Marly" }
		{ "dynnp_sil" "dynn_Melun" }
		{ "dynnp_sil" "dynn_Montmorency" }
		{ "dynnp_sil" "dynn_Nanteuil" }
		{ "dynnp_sil" "dynn_Neauphle" }
		{ "dynnp_sil" "dynn_Saint-Denis" }
		{ "dynnp_sil" "dynn_Voisins" }
		{ "dynnp_sil" "dynn_Boves" }
		{ "dynnp_sil" "dynn_Fontaines" }
		{ "dynnp_sil" "dynn_Roucy" }
		{ "dynnp_sil" "dynn_Saint-ValE_ry" }
		{ "dynnp_sil" "dynn_Bar" }
		{ "dynnp_sil" "dynn_Villehardouin" }
		{ "dynnp_sil" "dynn_Donzy" }
		{ "dynnp_d_" "dynn_Astarac" }
		{ "dynnp_sil" "dynn_Montesquiou" }
		{ "dynnp_sil" "dynn_Cardaillac" }
		{ "dynnp_sil" "dynn_Gontaut" }
		{ "dynnp_sil" "dynn_Roquefeuil" }
		{ "dynnp_sil" "dynn_Barbaira" }
		{ "dynnp_sil" "dynn_Durfort" }
		{ "dynnp_d_" "dynn_Hautpoul" }
		{ "dynnp_sil" "dynn_Laurac" }
		{ "dynnp_sil" "dynn_Saissac" }
		{ "dynnp_sil" "dynn_Termes" }
		{ "dynnp_sil" "dynn_Durban" }
		{ "dynnp_sil" "dynn_Saone" }
		"dynn_Ledur"
		{ "dynnp_sil" "dynn_Guise" }
		{ "dynnp_sil" "dynn_Crysoing" }
		{ "dynnp_sil" "dynn_Neuilly" }
		{ "dynnp_sil" "dynn_Bazoches" }
		{ "dynnp_sil" "dynn_Chappes" }
		{ "dynnp_sil" "dynn_Toucy" }
		{ "dynnp_sil" "dynn_Trith" }
		{ "dynnp_d_" "dynn_Apremont" }
		{ "dynnp_sil" "dynn_Trainel" }
		{ "dynnp_sil" "dynn_RhE_ninghe" }
		{ "dynnp_sil" "dynn_Monteil" }
		{ "dynnp_sil" "dynn_Bourbourg" }
		{ "dynnp_d_" "dynn_Ardres" }
		{ "dynnp_sil" "dynn_Fiennes" }
		{ "dynnp_sil" "dynn_Saint-Pol" }
		{ "dynnp_sil" "dynn_Baudement" }
		{ "dynnp_d_" "dynn_Erville" }
		{ "dynnp_sil" "dynn_Glane" }
		{ "dynnp_d_" "dynn_Apchier" }
		{ "dynnp_sil" "dynn_Messines" }
		"dynn_La_FertE_"
		"dynn_Grenier"
		{ "dynnp_sil" "dynn_Montfaucon" }
		{ "dynnp_sil" "dynn_Plancy" }
		{ "dynnp_sil" "dynn_Petra" }
		{ "dynnp_sil" "dynn_Marash" }
		{ "dynnp_sil" "dynn_Mousson" }
		{ "dynnp_d_" "dynn_Alamant" }
		{ "dynnp_sil" "dynn_Cicon" }
		{ "dynnp_sil" "dynn_Karditsa" }
		{ "dynnp_sil" "dynn_Motluel" }
		{ "dynnp_sil" "dynn_Salvaing" }
		{ "dynnp_sil" "dynn_Thoire" }
		{ "dynnp_sil" "dynn_Valromey" }
		{ "dynnp_sil" "dynn_Lacarre" }
		{ "dynnp_sil" "dynn_Fenouillet" }
		"dynn_PantalE_on"
		{ "dynnp_sil" "dynn_Tarentaise" }
		{ "dynnp_d_" "dynn_Euse" }
		{ "dynnp_sil" "dynn_Courtenay" }
		{ "dynnp_sil" "dynn_Saint-Valery" }
		{ "dynnp_d_" "dynn_Enghien" }
		{ "dynnp_sil" "dynn_Matha" }
		{ "dynnp_d_" "dynn_Arcy" }
		{ "dynnp_sil" "dynn_BaugE_" }
		{ "dynnp_sil" "dynn_Montboissier" }
		{ "dynnp_sil" "dynn_Baugency" }
		{ "dynnp_sil" "dynn_Tresmes" }
		{ "dynnp_sil" "dynn_Courtenay" }
		{ "dynnp_d_" "dynn_Ibelin" }
		{ "dynnp_sil" "dynn_Milly" }
		{ "dynnp_sil" "dynn_Joinville" }
		{ "dynnp_sil" "dynn_ChA_tillon" }
		{ "dynnp_sil" "dynn_la_Roche" }
		{ "dynnp_d_" "dynn_Altaville" }
		{ "dynnp_sil" "dynn_Malveisin" }
		{ "dynnp_sil" "dynn_Soule" }
		{ "dynnp_sil" "dynn_Leu" }
		{ "dynnp_sil" "dynn_Coarraze" }
		{ "dynnp_sil" "dynn_Lescar" }
		{ "dynnp_sil" "dynn_Morlaas" }
		{ "dynnp_sil" "dynn_Pau" }
		{ "dynnp_d_" "dynn_Orthez" }
		{ "dynnp_sil" "dynn_Pardiac" }
		{ "dynnp_sil" "dynn_Fezenzaguet" }
		{ "dynnp_sil" "dynn_LuC_on" }
		{ "dynnp_sil" "dynn_Talmont" }
		{ "dynnp_sil" "dynn_GuE_ret" }
		{ "dynnp_sil" "dynn_Martel" }
		{ "dynnp_sil" "dynn_Cognac" }
		{ "dynnp_sil" "dynn_Riom" }
		{ "dynnp_sil" "dynn_Thiers" }
		{ "dynnp_sil" "dynn_Guines" }
		{ "dynnp_sil" "dynn_Artois" }
		{ "dynnp_sil" "dynn_Evreux" }
		{ "dynnp_sil" "dynn_Rennes" }
		{ "dynnp_sil" "dynn_Penthievre" }
		{ "dynnp_sil" "dynn_Vendome" }
		{ "dynnp_sil" "dynn_Blois" }
		{ "dynnp_sil" "dynn_Chartres" }
		{ "dynnp_d_" "dynn_I_le" }
		{ "dynnp_sil" "dynn_Vermandois" }
		{ "dynnp_sil" "dynn_Reims" }
		{ "dynnp_sil" "dynn_Luxembourg" }
		{ "dynnp_d_" "dynn_Auxerre" }
		{ "dynnp_sil" "dynn_Saintois" }
		{ "dynnp_sil" "dynn_Besancon" }
		{ "dynnp_sil" "dynn_Nevers" }
		{ "dynnp_sil" "dynn_Tourraine" }
		{ "dynnp_sil" "dynn_la_TrE_moille" }
		{ "dynnp_sil" "dynn_Saintonge" }
		{ "dynnp_sil" "dynn_Cilicia" }
		{ "dynnp_sil" "dynn_Bourbon" }
		{ "dynnp_sil" "dynn_Limousin" }
		{ "dynnp_d_" "dynn_Angouleme" }
		{ "dynnp_sil" "dynn_Macon" }
		{ "dynnp_sil" "dynn_Dauphine" }
		{ "dynnp_sil" "dynn_Monferrato" }
		{ "dynnp_sil" "dynn_Valais" }
		{ "dynnp_sil" "dynn_Grisons" }
		{ "dynnp_sil" "dynn_Chur" }
		{ "dynnp_sil" "dynn_FE_zensaguet" }
		{ "dynnp_sil" "dynn_Molle" }
		{ "dynnp_sil" "dynn_Faucogney" }
		{ "dynnp_sil" "dynn_Ridefort" }
		{ "dynnp_sil" "dynn_Moulin" }
		{ "dynnp_sil" "dynn_Chacim" }
		{ "dynnp_sil" "dynn_Montreuil" }
		{ "dynnp_sil" "dynn_Montoire" }
		{ "dynnp_sil" "dynn_Clissa" }
		"dynn_Mercadier"
		{ "dynnp_sil" "dynn_Vaqueiras" }
		"dynn_St__Genes"
		{ "dynnp_sil" "dynn_Sancerre" }
		"dynn_Vienne"
		{ "dynnp_sil" "dynn_Dammartin" }
		{ "dynnp_sil" "dynn_Coligny" }
		{ "dynnp_sil" "dynn_Lautrec" }
		{ "dynnp_d_" "dynn_Amboise" }
		{ "dynnp_sil" "dynn_Saint-Pol" }
		"dynn_Saint-Menehould"
		{ "dynnp_sil" "dynn_Bruyeres" }
		{ "dynnp_sil" "dynn_Stromoncourt" }
		{ "dynnp_sil" "dynn_Champlitte" }
		{ "dynnp_sil" "dynn_Tries" }
		{ "dynnp_du" "dynn_Pay_de_Provence" }
		{ "dynnp_sil" "dynn_Balben" }
		{ "dynnp_sil" "dynn_Comps" }
		{ "dynnp_d_" "dynn_Aissailly" }
		{ "dynnp_sil" "dynn_Murois" }
		{ "dynnp_of" "dynn_Syria" }
		"dynn_Borrel"
		{ "dynnp_sil" "dynn_Aspa" }
		{ "dynnp_sil" "dynn_Naplouse" }
		{ "dynnp_sil" "dynn_Donjon" }
		{ "dynnp_le" "dynn_Rat" }
		{ "dynnp_sil" "dynn_Montaigu" }
		{ "dynnp_sil" "dynn_Thercy" }
		{ "dynnp_sil" "dynn_Montacute" }
		{ "dynnp_sil" "dynn_Ville-Bride" }
		{ "dynnp_sil" "dynn_Chateauneuf" }
		{ "dynnp_sil" "dynn_Revel" }
		{ "dynnp_sil" "dynn_Lorgue" }
		{ "dynnp_sil" "dynn_Villiers" }
		{ "dynnp_sil" "dynn_Pins" }
		{ "dynnp_sil" "dynn_Villaret" }
		{ "dynnp_sil" "dynn_la_Marck" }
		{ "dynnp_sil" "dynn_Thourotte" }
		{ "dynnp_sil" "dynn_Roussillon" }
		{ "dynnp_sil" "dynn_Pontigny" }
		{ "dynnp_sil" "dynn_Beauvoir" }
		{ "dynnp_sil" "dynn_Marcey" }
		{ "dynnp_d_" "dynn_Aix" }
		{ "dynnp_sil" "dynn_ME_didan" }
		{ "dynnp_sil" "dynn_Sarvay" }
		{ "dynnp_sil" "dynn_Ruvigny" }
		{ "dynnp_sil" "dynn_Richercourt" }
		{ "dynnp_sil" "dynn_BlA_mont" }
		{ "dynnp_sil" "dynn_Neuville" }
		{ "dynnp_sil" "dynn_TraI_nel" }
		{ "dynnp_sil" "dynn_Ponthieu" }
		{ "dynnp_sil" "dynn_Sully" }
		{ "dynnp_of" "dynn_Burgundy" }
	}

	male_names = {


		#From EU4 - Anbennarian names
		Adran Albert Aldred Alfons Alos Alain Ardan Ardor Aril Artorian Artur Aucan Austyn Awen Borian Brandon Brayan Brayden Calas Casten Castin Corin Daran Darran Elran Erel Eren Erlan Evin Galin Gelman Kalas Laurens Marion Maurise
		Rean Ricain Rion Robin Rogier Sandur Taelar Thiren Tomas Trian Varian Varion Varil Varilor Vincen Willam Avery Arman Tristan Alvar Adelar Andrel Frederic Adrien Adrian Valeran Valen Emil

		#From Vanilla
		Alured Adwen Cadoc Carantoc Fragan Geraint Salenn Selevan Petroc Peran Morcant Eustace

		Abram Abrahil Alaric Ascaric Arvemar Barnard Burchard Ceslin Chararic Clothar Clovis Everard Faroard Euric Feremund 
		Gautmar Guntram Lambert Lothar Marell Raynold Roland Sigeric Tancred

		Adrien Alphonse Clotaire Bertrand Lothaire Raymond Savary Gilles


		#New
		Arrel Lorran Adenn
		Marion Maurise Laurens Cristof Erlan Eilis Adenn Vincen Aldres Devan
		Marlen Munerin 
		Damien Damian Devand Darion Daras Darus
		Silvard Silverin Sylvester Cressen


	}
	female_names = {
		#From EU4 - Anbennarian names
		Adra Alara Alina Amarien Aria Calassa Aucanna Castennia Castina Cela Celadora Corina Cora Coraline Eilis Eilisabet Erella Erela Galina Galinda 
		Laurenne Lianne Madalein Maria Marianna Mariana Marianne Marien Marina Nara Reanna Thalia Varina Varinna Arabella Margery Cecille Kerstin Alisanne Isobel 
		Isabel Isabella Bella Adeline Amina Willamina Aldresia Sofie Sofia Sybille Constance Eleanore Valence Emilie Gisele Athana

		#Elven Influence Set
		Adra Alara Alina Aria Calassa Castennia Castina Cela Celadora Eilis Eilisabet Erela Galina Galinda Laurenne Lianne Madalein Nara Reanna Thalia
		Verina Riannon

		#New
		Auci Verina Riannon

		#From Vanilla
		Gisela Gisela Bertrada Bertrada Gisela Ida Sophia
		Helene Hemma Judith Ida Susanna
		Claudia
		Alena Fenna Elke 
		Filippa Frida Reynilde Maria Mathilde Oda Odelt Olinde Onna

		Bertilla Bertrada Alda Aldegonde Celsa Aliberta Dagena Fastrada

		#New Damerian Republic set (some good ones)
		Aucaverta Aucarona Aucerona Damevira Damelina Lunaverta Lunarona Lunaverta Lunafreda Tederona



	}


	dynasty_of_location_prefix = "dynnp_sil"

	# Chance of male children being named after their paternal or maternal grandfather, or their father. Sum must not exceed 100.
	pat_grf_name_chance = 60
	mat_grf_name_chance = 10
	father_name_chance = 10
	
	# Chance of female children being named after their paternal or maternal grandmother, or their mother. Sum must not exceed 100.
	pat_grm_name_chance = 10
	mat_grm_name_chance = 60
	mother_name_chance = 10

	mercenary_names = {
		{ name = "mercenary_company_white_company" coat_of_arms = "mc_white_company" }
		{ name = "mercenary_company_hawkwoods_band" }
	}
}

name_list_old_damerian = {

	cadet_dynasty_names = {
		"dynn_Hayles"
		{ "dynnp_of" "dynn_Norfolk" }
		"dynn_Rose"
		"dynn_Dodington"
		"dynn_Stawell"
		"dynn_Huntingdon"
		"dynn_Lockhart"
		"dynn_Wuffing"
		"dynn_Henry"
		"dynn_Hastings"
		"dynn_Puttoc"
		{ "dynnp_of" "dynn_Anglo-Saxony" }
		{ "dynnp_of" "dynn_Northampton" }
		"dynn_A_theling"
		"dynn_Moore"
		"dynn_Fysche"
		"dynn_Dall"
		"dynn_Slee"
		"dynn_Kiil"
		"dynn_Mel"
		"dynn_Holter"
		"dynn_Randolph"
		"dynn_Percy"
		"dynn_Despencer"
		"dynn_Bacon"
		"dynn_Reresby"
		"dynn_Cornwallis"
		"dynn_Clifford"
		"dynn_Carew"
		"dynn_Maddock"
		"dynn_Fortescue"
		{ "dynnp_de" "dynn_Ros" }
		"dynn_Howard"
		"dynn_Maudit"
		"dynn_Berkeley"
		"dynn_Barton"
		"dynn_Colvile"
		"dynn_Grey"
		"dynn_Darcy"
		{ "dynnp_de" "dynn_Garlande" }
		"dynn_Perry"
		"dynn_Bethell"
		"dynn_Perry"
		"dynn_Borthwick"
		{ "dynnp_de" "dynn_London" }
		{ "dynnp_of" "dynn_Hereford" }
		{ "dynnp_of" "dynn_Gloucester" }
		{ "dynnp_of" "dynn_Oxford" }
		{ "dynnp_of" "dynn_Salisbury" }
		{ "dynnp_of" "dynn_Surrey" }
		{ "dynnp_of" "dynn_Sussex" }
		{ "dynnp_of" "dynn_Hampshire" }
		{ "dynnp_of" "dynn_Dorset" }
		{ "dynnp_of" "dynn_Somerset" }
		{ "dynnp_of" "dynn_Devon" }
		{ "dynnp_of" "dynn_Exeter" }
		{ "dynnp_of" "dynn_Cumberland" }
		{ "dynnp_of" "dynn_York" }
		{ "dynnp_of" "dynn_Lancaster" }
		{ "dynnp_of" "dynn_Chester" }
		{ "dynnp_of" "dynn_Lincoln" }
		{ "dynnp_of" "dynn_Leicester" }
		{ "dynnp_of" "dynn_Derby" }
		{ "dynnp_of" "dynn_Shrewsbury" }
		{ "dynnp_of" "dynn_Northampton" }
		{ "dynnp_of" "dynn_Bedford" }
		{ "dynnp_of" "dynn_Norfolk" }
		{ "dynnp_of" "dynn_Suffolk" }
		"dynn_Crawford"
		"dynn_Tynedale"
		"dynn_Pudsey"
		"dynn_Marshal"
		"dynn_Rowe"
		{ "dynnp_de" "dynn_Criel" }
		"dynn_Ciesla"
		"dynn_Ross"
		"dynn_Wuffing"
		"dynn_Beorming"
		"dynn_Eorling"
		"dynn_A_bbing"
		"dynn_A_lling"
		"dynn_Wintaling"
	}

	dynasty_names = {
		"dynn_Hayles"
		{ "dynnp_of" "dynn_Norfolk" }
		"dynn_Rose"
		"dynn_Dodington"
		"dynn_Stawell"
		"dynn_Huntingdon"
		"dynn_Lockhart"
		"dynn_Wuffing"
		"dynn_Henry"
		"dynn_Hastings"
		"dynn_Puttoc"
		{ "dynnp_of" "dynn_Anglo-Saxony" }
		{ "dynnp_of" "dynn_Northampton" }
		"dynn_A_theling"
		"dynn_Moore"
		"dynn_Fysche"
		"dynn_Dall"
		"dynn_Slee"
		"dynn_Kiil"
		"dynn_Mel"
		"dynn_Holter"
		"dynn_Randolph"
		"dynn_Percy"
		"dynn_Despencer"
		"dynn_Bacon"
		"dynn_Reresby"
		"dynn_Cornwallis"
		"dynn_Clifford"
		"dynn_Carew"
		"dynn_Maddock"
		"dynn_Fortescue"
		{ "dynnp_de" "dynn_Ros" }
		"dynn_Howard"
		"dynn_Maudit"
		"dynn_Berkeley"
		"dynn_Barton"
		"dynn_Colvile"
		"dynn_Grey"
		"dynn_Darcy"
		{ "dynnp_de" "dynn_Garlande" }
		"dynn_Perry"
		"dynn_Bethell"
		"dynn_Perry"
		"dynn_Borthwick"
		{ "dynnp_de" "dynn_London" }
		{ "dynnp_of" "dynn_Hereford" }
		{ "dynnp_of" "dynn_Gloucester" }
		{ "dynnp_of" "dynn_Oxford" }
		{ "dynnp_of" "dynn_Salisbury" }
		{ "dynnp_of" "dynn_Surrey" }
		{ "dynnp_of" "dynn_Sussex" }
		{ "dynnp_of" "dynn_Hampshire" }
		{ "dynnp_of" "dynn_Dorset" }
		{ "dynnp_of" "dynn_Somerset" }
		{ "dynnp_of" "dynn_Devon" }
		{ "dynnp_of" "dynn_Exeter" }
		{ "dynnp_of" "dynn_Cumberland" }
		{ "dynnp_of" "dynn_York" }
		{ "dynnp_of" "dynn_Lancaster" }
		{ "dynnp_of" "dynn_Chester" }
		{ "dynnp_of" "dynn_Lincoln" }
		{ "dynnp_of" "dynn_Leicester" }
		{ "dynnp_of" "dynn_Derby" }
		{ "dynnp_of" "dynn_Shrewsbury" }
		{ "dynnp_of" "dynn_Northampton" }
		{ "dynnp_of" "dynn_Bedford" }
		{ "dynnp_of" "dynn_Norfolk" }
		{ "dynnp_of" "dynn_Suffolk" }
		"dynn_Crawford"
		"dynn_Tynedale"
		"dynn_Pudsey"
		"dynn_Marshal"
		"dynn_Rowe"
		{ "dynnp_de" "dynn_Criel" }
		"dynn_Ciesla"
		"dynn_Ross"
		"dynn_Wuffing"
		"dynn_Beorming"
		"dynn_Eorling"
		"dynn_A_bbing"
		"dynn_A_lling"
		"dynn_Wintaling"
	}
	
	male_names = {

		#EU4
		Acromar Adelar Alain Alen Arnold Camir Camor Canrec Carlan Celgal Ciramod Clothar Colyn Coreg Crovan Crovis Corac Corric Dalyon Delan Delian Devac Devan Dustyn Edmund 
		Elecast Frederic Godrac Godric Godryc Godwin Gracos Henric Lain Lan Madalac Marcan Petran Peyter Rabac Rabard Rican Rycan Ricard Rogec 
		Roger Stovac Stovan Teagan Tomac Toman Tomar Tormac Venac Vencan Walter Welyam Wystan Bellac
		Caylen

		#From Vanilla - Frankish
		Abrahil Abram Adalbald Adalbert Adalgrim Ageric Agilbert Ailbert Albric
		Andica Ansovald Arcambald Arnulf Ascaric Audovald Autbert
		Avremar Barnard Berald Bernard Bero Berold Berthefried Bertlin Bertram
		Bertrand Burchard Ceslin Chararic Charibert
		Chlothar Clodio Clodion Clovis Creat Dagaric Dagobert 
		Euric Everard Faroard Faroin Feremund Feroard Foroen Frobert Frotari Frothard Frothari Frotlaic Fulcari Fulcrad
		Galteri Gararic Garivald Gaucelm Gaudulf Gaujoin Gausbert Gausbold Gautmar Gauzbert Gedalbert Gedalca Genobaud Gerbert
		Gerhard Gerold Gocelm Godalbert Godomar Grimald Guadulf Gualter Guitard Gundobad
		Gunthar Guntram Haldemar Hartmut Hildoin Hucbert Hugbert Imnachar Ingalbert
		Ingomer Karl Lambert Lantbert Leudast Lothar Magnachar Magneric Mainard Mallobaudes Marachar Marcomer
		Marell Martin Meginhard Niebelung Odelric Odolric Otbert Otgeri Otker Pharamond
		Pippin Radulf Ragambald Ragena Ragenard Raginari Ragnachar Ragnald Raimbold Rainald Ramnulf Rathar
		Raynold Reginari Ricchar Rignomer Roland Robert Rotbert Segoin Seguin Sicbald Sichar Sicland Sicleard Siclevold
		Sigebald Sigebert Sigeric Sigismund Sigobert Sunno Tancrad Tancred Teutbert
		Theutbald Trutgaud
		Waltgaud Werinbert Wilbert Willichar

		Alured Adwen Cadoc Carantoc Fragan Geraint Salenn Selevan Petroc Peran Morcant

		#From Vanilla - Suebi but romanized set -> good for damerian republic names
		Agimadus Argiovitus Baldemarius Baltarius Bonesindus Commundus Dagaredus Daildus Donazarius Eisindus Eldegotus Eldesindus Ensaldus Fagildus
		Gomulfus Gresumarus Gudesteus Gumarius Leoderigus Magitus Malaredus Marcosendus Nandaricus Notarius Odemundus Odericus Onoricus Pantinus Pantius Pappinus
		Quedulfus Quidericus Ragolfus Randinus Randaurius Ranisclus Reirigus Rendericus Roelindus Romarigus Segomirus Sescutus Sisulfus Suavarius
		Roelindus Romarigus Sagatus Segomirus Sentarius Sescutus Sisulfus Suavarius Teoderedus Viamundus Vidraldus Zamarius

		#New Damerian Republic set
		Auricius Aucanus Occanus Aurivitus Aurimadus Damegarius Damerus Damescutus Damavarius Damaderus Damamundas
		Mondelus Munumarus Lugesteus Lugarius Lugondus Lugaredus Lonemundus Lunamadus Acrogustus Acromaldus Acromadus Acrosindus Nathagandus Nathaldus Nadildus
		Lenedius Aucangatus Aucamorus Aucomarius Auscutus Ausfilfus Ausvarius

		#New
		Arrel Lorran


	}
	female_names = {

		#EU4
		Auci Bella Clarimonde Clarya Clothilde Constance Coralinde Cora Dalya Etta 
		Humba Lisban Lisbet Madala Magda Matilda Adela Alice Anna Anne Catherine Edith Eleanor Elenor Emma
		Coraline Cora Corina Cecille Valence Athana

		#From Vanilla
		Gisela Gisela Bertrada Bertilla Bertha Bertrada Gertrud Gisela Ida Sophia
		Helene Hemma Judith Ida Susanna
		Brethoc Claudia Candida Clementia Hildegarde Christine Ursula
		Alena Fenna Elke 
		Filippa Frida Gerda Godila Reynilde Maria Mathilde Oda Odelt Olinde Onna

		#From Vanilla - Suebi but romanized set -> good for damerian republic names
		Alatrudia Aliverta Dagadruida Ebragundia Eldegundia Ermedrudia Fradegundia Gelvira Godoigia Goldrerona Gundiverga Guntedrudia Ildiverga Kindiverga Lallina
		Mirosinda Penefreda Penetrudia Sisiverta Sitividis Tederona Teodevirga Teodiverta Teodoriga

		#New Damerian Republic set
		Aucatrudia Aucaverta Aucagundia Aucanvira Aucanodia Aucarona Aucerona Aurcaverga Dametrudia Damedruida Damevira Dameverga Damelina Damatrudia
		Lunatrudia Lunaverta Lunagundia Lunavirga Lunarona Lunaverta Lunafreda Acrotrudia Acroverta Acrogundia Acrovirga Acroverta

		Adalgardis Adallinda Adaltrude Adaluildis Adelaidis Airsenda Albofleda Albrada Alda Aldegonde Aliberta Alitrudis Ansegudis Ansegundis
		Anstrude Arsindis Audofleda Audovera Austreberta Austrechild Balthild Begga Beretrude Bernegildis Bertenildis Berthefled Berthefried
		Berthegund Berthildis Bertilla Bertrada Bladovildis Brunhild Burgundofara Celsa Celsovildis Chlodosind Chlothsinda Clotild Creada
		Dagena Eldesendis Ermengardis Ermengildis Ermensindis Eustadiola Faileuba Faregildis Fastrada Framberta Fredegunde Frolaica Frotberga
		Galswinth Gaudildis Gautlindis Genovefa Gersvinda Gertrude Gisela Glodesind Goiswinth Gotberga Gundrada Halderudis
		Harildis Hildegarde Hildegardis Hildesendis Hiltrude Illegardis Ingitrude Ingohildis Ingunde Itta Landina Lanthechilde Lantsida Leubast Leubovera
		Leutberga Leutgardis Liutgarde Madelgarde Magnatrude Marcatrude Marcovefa Martinga Monegund Morberga Radegund Rictrude Rigunth
		Rosamund Rothaide Rotrude Ruothilde Rusticula Sadalberga Theodelinda Theoderada Ultrogotha Waltrude

		Anaudat Artaca Breage Brevita Budoc Mabyn Meonre Milian Moruith Vepa Tetha 

	}

	dynasty_of_location_prefix = "dynnp_of"

	# Chance of male children being named after their paternal or maternal grandfather, or their father. Sum must not exceed 100.
	pat_grf_name_chance = 50
	mat_grf_name_chance = 5
	father_name_chance = 10
	
	# Chance of female children being named after their paternal or maternal grandmother, or their mother. Sum must not exceed 100.
	pat_grm_name_chance = 10
	mat_grm_name_chance = 50
	mother_name_chance = 5

	

	mercenary_names = {
		{ name = "mercenary_company_hengist_retinue" coat_of_arms = "mc_hengist_retinue" }
		{ name = "mercenary_company_wakes_guard" coat_of_arms = "mc_wakes_guard" }
		{ name = "mercenary_company_horsas_band" coat_of_arms = "mc_horsas_band" }
	}
}

name_list_pearlsedger = {
	dynasty_names = {
		dynn_Pattensen
		dynn_Schneider
		dynn_Theodericing
		dynn_Richfriding
		dynn_Abonid
		dynn_Smeldiging
		dynn_Unwanid
		dynn_Hessing
	}
	
	male_names = {

		#From EU4 - Anbennarian names
		Adran Albert Aldred Alfons Alos Alain Ardan Ardor Aril Artorian Artur Aucan Austyn Awen Borian Brandon Brayan Brayden Calas Casten Castin Corin Daran Darran Elran Erel Eren Erlan Evin Galin Gelman Kalas Laurens Marion Maurise
		Rean Ricain Rion Robin Rogier Sandur Taelar Thiren Tomas Trian Varian Varion Varil Varilor Vincen Willam Avery Arman Tristan Alvar Adelar Andrel Frederic Adrien Adrian Valeran Valen Emil

		#New
		Tristan Tristen Aron


		Abel Anders Anund Asger Balder Benedikt BjOErn Bo Christian Christoffer Edvard Einar Erik Ernst Esben Fredrik Frej Frode Glum Gnupa Gorm Gotfred Gregers Grim Gunnar
		HA_rik Halfdan Halvor Hans Harald Helge Hemming Henrik Hjalmar Holger Ingolf JO_rgen JO_rn Jakob Jens Joakim Johann Karl Knud
		Kristian Leif Lennart Ludvig Malthe Mads Mikkel Mogens Niels Odd Olav Oluf Peder Poul PridbjO_rn Ragnar Ragnvald Rolf Rune RO_rik Severin Sigfred Sigtryg Sigurd
		Sivard Steen Svend SA_mund Thorolf Thorvald Torben TorbjOErn Tord Torfinn Torgils Ture Ubbe Uffe Ulf Valdemar Valentin Vilfred Yngvar
	}
	female_names = {
		#From EU4 - Anbennarian names
		Adra Alara Alina Amarien Aria Calassa Aucanna Castennia Castina Cela Celadora Corina Cora Coraline Eilis Eilisabet Erella Erela Galina Galinda 
		Laurenne Lianne Madalein Maria Marianna Mariana Marianne Marien Marina Nara Reanna Thalia Varina Varinna Arabella Margery Cecille Kerstin Alisanne Isobel 
		Isabel Isabella Bella Adeline Amina Willamina Aldresia Sofie Sofia Sybille Constance Eleanore Valence Emilie Gisele Athana

		Agnethe Anna Asta Benedikte Birgitta Bodil Cecilie Christina Dagmar Dorothea Elisabeth Ellinor Emilie Erika Ester Estrid Frederikke Freja
		Grethe Gudrun Gunhild Gyda Helena Ida Ingeborg Ingegerd Ingrid Johanne Jutta Karin Karoline Katarina Katrine Kirsten Klara Lise Luitgard Lykke
		Magdalene Maren Margrethe Maria Martha Ragnfrid Ragnhild Rikissa Runa Sanna Signe Sigrid Silje Sofie Svanhild Thyra Tora Thordis A_se
	}
	
	dynasty_of_location_prefix = "dynnp_of"
	
	#patronym_suffix_male = "dynnpat_suf_sen"
	#patronym_suffix_female = "dynnpat_suf_sdatter"
	#always_use_patronym = yes	

	# Chance of male children being named after their paternal or maternal grandfather, or their father. Sum must not exceed 100.
	pat_grf_name_chance = 80
	mat_grf_name_chance = 0
	father_name_chance = 0
	
	# Chance of female children being named after their paternal or maternal grandmother, or their mother. Sum must not exceed 100.
	pat_grm_name_chance = 10
	mat_grm_name_chance = 50
	mother_name_chance = 0
}

name_list_esmari = {
	dynasty_names = {
		dynn_Pattensen
		dynn_Schneider
		dynn_Theodericing
		dynn_Richfriding
		dynn_Abonid
		dynn_Smeldiging
		dynn_Unwanid
		dynn_Hessing
	}
	
	
	male_names = {


		#From EU4 - Anbennarian names
		Adran Albert Aldred Alfons Alos Alain Ardan Ardor Aril Artorian Artur Aucan Austyn Awen Borian Brandon Brayan Brayden Calas Casten Castin Corin Daran Darran Elran Erel Eren Erlan Evin Galin Gelman Kalas Laurens Marion Maurise
		Rean Ricain Rion Robin Rogier Sandur Taelar Thiren Tomas Trian Varian Varion Varil Varilor Vincen Willam Avery Arman Tristan Alvar Adelar Andrel Frederic Adrien Adrian Valeran Valen Emil

		#From Vanilla
		Alured Adwen Cadoc Carantoc Fragan Geraint Salenn Selevan Petroc Peran Morcant Eustace

		Abram Abrahil Alaric Ascaric Arvemar Barnard Burchard Ceslin Chararic Clothar Clovis Everard Faroard Euric Feremund 
		Gautmar Guntram Lambert Lothar Marell Raynold Roland Sigeric Tancred

		Adrien Alphonse Clotaire Bertrand Lothaire Raymond Savary Gilles


		#New
		Arrel Lorran
		Laurens Cristof Erlan Eilis Vincen Aldres Devan
		Damien Damian Devand Darion Daras Darus
		Cressen

		Erwin Eric Ernan Ernald Evard Rylan Royan Roy
		Emmon Emmic Emmor Emmorn Emmeric Emmeran Emer 

	}
	female_names = {
		#From EU4 - Anbennarian names
		Adra Alara Alina Amarien Aria Calassa Aucanna Castennia Castina Cela Celadora Corina Cora Coraline Eilis Eilisabet Erella Erela Galina Galinda 
		Laurenne Lianne Madalein Maria Marianna Mariana Marianne Marien Marina Nara Reanna Thalia Varina Varinna Arabella Margery Cecille Kerstin Alisanne Isobel 
		Isabel Isabella Bella Adeline Amina Willamina Aldresia Sofie Sofia Sybille Constance Eleanore Valence Emilie Gisele Athana

		#Elven Influence Set
		Adra Alara Alina Aria Calassa Castennia Castina Cela Celadora Eilis Eilisabet Erela Galina Galinda Laurenne Lianne Madalein Nara Reanna Thalia
		Verina Riannon

		#New
		Auci Verina Riannon

		#From Vanilla
		Gisela Gisela Bertrada Bertrada Gisela Ida Sophia
		Helene Hemma Judith Ida Susanna
		Claudia
		Alena Fenna Elke 
		Filippa Frida Reynilde Maria Mathilde Oda Odelt Olinde Onna

		Bertilla Bertrada Alda Aldegonde Celsa Aliberta Dagena Fastrada

		Erwina Erica Ernana Ernalda Evardi
		Emma Emmalinda Emmalinde
	}

	dynasty_of_location_prefix = "dynnp_sil"

	# Chance of male children being named after their paternal or maternal grandfather, or their father. Sum must not exceed 100.
	pat_grf_name_chance = 50
	mat_grf_name_chance = 5
	father_name_chance = 10
	
	# Chance of female children being named after their paternal or maternal grandmother, or their mother. Sum must not exceed 100.
	pat_grm_name_chance = 10
	mat_grm_name_chance = 50
	mother_name_chance = 5
}

name_list_old_esmari = {
	dynasty_names = {
		dynn_Pattensen
		dynn_Schneider
		dynn_Theodericing
		dynn_Richfriding
		dynn_Abonid
		dynn_Smeldiging
		dynn_Unwanid
		dynn_Hessing
	}
	
	
	male_names = {


		#From Vanilla - Frankish
		Abrahil Abram Adalbald Adalbert Adalgrim Ageric Agilbert Ailbert Albric
		Andica Ansovald Arcambald Arnulf Ascaric Audovald Autbert
		Avremar Barnard Berald Bernard Bero Berold Berthefried Bertlin Bertram
		Bertrand Burchard Ceslin Chararic Charibert
		Chlothar Clodio Clodion Clovis Creat Dagaric Dagobert 
		Euric Everard Faroard Faroin Feremund Feroard Foroen Frobert Frotari Frothard Frothari Frotlaic Fulcari Fulcrad
		Galteri Gararic Garivald Gaucelm Gaudulf Gaujoin Gausbert Gausbold Gautmar Gauzbert Gedalbert Gedalca Genobaud Gerbert
		Gerhard Gerold Gocelm Godalbert Godomar Grimald Guadulf Gualter Guitard Gundobad
		Gunthar Guntram Haldemar Hartmut Hildoin Hucbert Hugbert Imnachar Ingalbert
		Ingomer Karl Lambert Lantbert Leudast Lothar Magnachar Magneric Mainard Mallobaudes Marachar Marcomer
		Marell Martin Meginhard Niebelung Odelric Odolric Otbert Otgeri Otker Pharamond
		Pippin Radulf Ragambald Ragena Ragenard Raginari Ragnachar Ragnald Raimbold Rainald Ramnulf Rathar
		Raynold Reginari Ricchar Rignomer Roland Robert Rotbert Segoin Seguin Sicbald Sichar Sicland Sicleard Siclevold
		Sigebald Sigebert Sigeric Sigismund Sigobert Sunno Tancrad Tancred Teutbert
		Theutbald Trutgaud
		Waltgaud Werinbert Wilbert Willichar

		Alured Adwen Cadoc Carantoc Fragan Geraint Salenn Selevan Petroc Peran Morcant


		#New
		Erwin Eric Ernan Ernald Evard Rylan Royan Roy
		Emmon Emmic Emmor Emmorn Emmeric Emmeran Emer 
	}
	female_names = {

		#From Vanilla
		Gisela Gisela Bertrada Bertilla Bertha Bertrada Gertrud Gisela Ida Sophia
		Helene Hemma Judith Ida Susanna
		Brethoc Claudia Candida Clementia Hildegarde Christine Ursula
		Alena Fenna Elke 
		Filippa Frida Gerda Godila Reynilde Maria Mathilde Oda Odelt Olinde Onna

		Adalgardis Adallinda Adaltrude Adaluildis Adelaidis Airsenda Albofleda Albrada Alda Aldegonde Aliberta Alitrudis Ansegudis Ansegundis
		Anstrude Arsindis Audofleda Audovera Austreberta Austrechild Balthild Begga Beretrude Bernegildis Bertenildis Berthefled Berthefried
		Berthegund Berthildis Bertilla Bertrada Bladovildis Brunhild Burgundofara Celsa Celsovildis Chlodosind Chlothsinda Clotild Creada
		Dagena Eldesendis Ermengardis Ermengildis Ermensindis Eustadiola Faileuba Faregildis Fastrada Framberta Fredegunde Frolaica Frotberga
		Galswinth Gaudildis Gautlindis Genovefa Gersvinda Gertrude Gisela Glodesind Goiswinth Gotberga Gundrada Halderudis
		Harildis Hildegarde Hildegardis Hildesendis Hiltrude Illegardis Ingitrude Ingohildis Ingunde Itta Landina Lanthechilde Lantsida Leubast Leubovera
		Leutberga Leutgardis Liutgarde Madelgarde Magnatrude Marcatrude Marcovefa Martinga Monegund Morberga Radegund Rictrude Rigunth
		Rosamund Rothaide Rotrude Ruothilde Rusticula Sadalberga Theodelinda Theoderada Ultrogotha Waltrude

		Anaudat Artaca Breage Brevita Budoc Mabyn Meonre Milian Moruith Vepa Tetha 

		Erwina Erica Ernana Ernalda Evardi
		Emma Emmalinda Emmalinde
	}

	dynasty_of_location_prefix = "dynnp_of"

	# Chance of male children being named after their paternal or maternal grandfather, or their father. Sum must not exceed 100.
	pat_grf_name_chance = 50
	mat_grf_name_chance = 5
	father_name_chance = 10
	
	# Chance of female children being named after their paternal or maternal grandmother, or their mother. Sum must not exceed 100.
	pat_grm_name_chance = 10
	mat_grm_name_chance = 50
	mother_name_chance = 5
}

name_list_vernid = {
	dynasty_names = {
		dynn_Pattensen
		dynn_Schneider
		dynn_Theodericing
		dynn_Richfriding
		dynn_Abonid
		dynn_Smeldiging
		dynn_Unwanid
		dynn_Hessing
	}
	
	
	male_names = {
		Adalgis Adaloald Adhemar Ado Agelmund Agilof Agilulf Agiprand Ago Ahthari Aimeric
		Aistulf Aiulf Ajo Alahis Alboin Aldihoc Alo Altpert Amefrith Anselm Ansfrid Ansfrith
		Ansprand Ardoin Arechis Ariald Aribert Arichis Aripert Ariulf Arnefrith Arnifrid Artavasdas Atenulf
		Atto Audelahis Audoin Aunepert Ausfrid Authari Berin Bernard Birinus Cleph Corvulus
		Daufer Erchempert Erchinoald Erlembald Ewin Fara Faroald Ferdulf Gacco Garibald Gisulf Godehoc
		Godepert Godescalc Grasulf Grimoald Guaifer Guaimar Gumpert Gundo Gundoald
		Hermenfred Hildeprand Hilderic Hildigis Hilmagis Hrodgaud Hucpert Ibor Ildiches Indulf
		Ingoald Ioann Irnerius Kakko Kunibert Laiamicho Laidulf Lambert Landari Landenulf Lando
		Lantpert Laudari Manso Munichis
		Nordepert Odilo Odoaker Odoin Orson Pandenulf Pandulf Pemmo Penno Perctarit Petrus
		Poppo Radelchis Radelgar Radgis Radwald Raginpert Ratchis Reccared Risiulf Rochus Rodgand
		Rodoald Rodolf Rodwald Romuald Rothari Saxo Sico Siconulf Sigibuld Sigisbert Sigisbrand Sikard
		Sinibald Taino Taso Theotpert Theudoald Thrasimund
		Unichis Unigild Unulf Ursus Vacho Waifar Waimar Waldchis Waldipert Walthari Wechthari Wido Zotto Zuchilo

		#New
		Rocair Vernell Alvar Armoc #founder of verne
		Armocan Romcar Corvuloc Vercan Varco Vurcon Vurcan
	}
	female_names = {
		Adelberga Adelchisa Adelgrima Adelperga Altruda Amalasuintha Amalberga Amalfrida Ansa Anselberga Anselperga Ansia
		Appa Areagne Aurona Chlotsuintha Cotani Cunigunda Desiderata Ereleuva Erelieva Gaatha Gaila Gaitelgrima Gambara Geila
		Gemma Geretrudis Gerperga Giseltrude Giso Glismoda Gudeliva Gundeperga Guntrud Helchen Hermelinda
		Hunila Imma Kriemhild Liutberga Liutperga Liutpirc Maria Marozia Matasuntha Menia Pilitrud Rodelinda Rosamund Rotrude Rumetruda
		Serenahilt Sichelgaita Sunigilda Sunilda Swanahild Theodarada Theodelinda Theodorada Theodota Theuderada Thiudigotho Uta
		Vadamerca Valdamerca Walderada Wisigarda

		#New
		Rocira Alvara Armoca Armocana Romcarinde Vercanild Varconild Vurconild Vurcana
	}

	dynasty_of_location_prefix = "dynnp_of"

	
	# Chance of male children being named after their paternal or maternal grandfather, or their father. Sum must not exceed 100.
	pat_grf_name_chance = 30
	mat_grf_name_chance = 10
	father_name_chance = 25
	
	# Chance of female children being named after their paternal or maternal grandmother, or their mother. Sum must not exceed 100.
	pat_grm_name_chance = 20
	mat_grm_name_chance = 40
	mother_name_chance = 5
}


name_list_vernman = {
	dynasty_names = {
		dynn_Pattensen
		dynn_Schneider
		dynn_Theodericing
		dynn_Richfriding
		dynn_Abonid
		dynn_Smeldiging
		dynn_Unwanid
		dynn_Hessing
	}
	
	male_names = {	#No y's

		#From EU4 - Anbennarian names
		Adran Albert Aldred Alfons Alos Alain Ardan Ardor Aril Artorian Artur Awen Borian Calas Casten Castin Corin Daran Darran Denar Edmund Elran Erel Eren Erlan Evin Galin Kalas Laurens Marion Maurise Olor Oto
		Rean Ricain Rion Robin Rogier Sandur Taelar Thal Thiren Tomas Trian Varian Varion Varil Varilor Vincen Dustin Lucian Dominic Vernell Arman Cecill Tristan Alvar Adelar Andrel Frederic Adrien Adrian Ademar Valeran Valen Emil
		
		#New
		Rocair Vernell Alvar #founder of verne
		Dustin Armocain #elvenized Armoc

		Adelmo Abelardo Adriano Antonio Averado Alarico Enzo Filippo Ezio Enrico Elio Durante Landone Lucio Merigo Marco Ottavio Sciarra Simone
		Stefano Stentore Tedice Tibaldo Tommaso Vitale Vittore 


	}
	female_names = {
		#From EU4 - Anbennarian names
		Adra Alara Alina Amarien Aria Calassa Aucanna Castennia Castina Cela Celadora Clarimonde Corina Cora Coraline Eilis Eilisabet Erella Erela Galina Galinda 
		Laurenne Lianne Madalein Maria Marianna Mariana Marianne Marien Marina Nara Reanna Thalia Varina Varinna Arabella Cecille Kerstin Alisanne Isobel 
		Isabel Isabella Bella Adeline Amina Willamina Aldresia Sofie Sofia Constance Eleanore Valence Emilie Gisele Athana

		Abelina Alda Alisia Amalia Adriana Adelia Agnese Berenice Antonia Bendetta Benilde Edda Elena Eleonora Elisa Lisabetta
		Renata Ricciarda Mariana Marietta Livia Lucia Lcinetta Lucrezia Isabella Valentina Stefania Sofia Alessandra

		#New
		Rocira Alvara
		Lisabetta
	}

	dynasty_of_location_prefix = "dynnp_sil"
	
	# Chance of male children being named after their paternal or maternal grandfather, or their father. Sum must not exceed 100.
	pat_grf_name_chance = 30
	mat_grf_name_chance = 10
	father_name_chance = 25
	
	# Chance of female children being named after their paternal or maternal grandmother, or their mother. Sum must not exceed 100.
	pat_grm_name_chance = 20
	mat_grm_name_chance = 40
	mother_name_chance = 5
}


name_list_arannese = {
	dynasty_names = {
		dynn_Pattensen
		dynn_Schneider
		dynn_Theodericing
		dynn_Richfriding
		dynn_Abonid
		dynn_Smeldiging
		dynn_Unwanid
		dynn_Hessing
	}
	
	
	male_names = {

		#From EU4 - Anbennarian names
		Adran Aldred Alfons Alos Alain Ardan Ardor Aril Artorian Artur Austyn Awen Borian Brandon Calas Casten Castin Corin Daran Darran Elran Erel Eren Erlan Evin Galin Gelman Kalas Laurens Marion Maurise
		Rean Ricain Rion Robin Rogier Sandur Taelar Thiren Tomas Trian Varian Varion Varil Varilor Vincen Avery Arman Tristan Alvar Adelar Andrel Frederic Adrien Adrian Valeran Valen Emil


		#Vanilla - Georgian
		Aleksandre Demetre Giorgi Grigoli Guaram
		Iese Ioane Iveri Levan Luarsab Mikheil Nikoloz
		Simon Stepanoz Vache

		#Vanilla - Visigothic, for that link with Businor
		Adelfonso Alaricho Alatheo Ardo Diaco Gaton Mauregato Ordonno Petro Ricimero 

		#Vanilla - more "modern" Polish Arannese
		Aleksander Antoni Bogislav Dervan Drosuk FrantiS_ek Havel Jacenty Jakub Jaromar
		Jaromir Jozef Kahetan Karel Kasimir Kasper Kornel KreS_imir
		Lubomir Lucjan Marek Marian Martin Niklot Patryk Petrus Piotr Radomil Radomir Sambor
		Walenty 
	}
	
	female_names = {

		#From EU4 - Anbennarian names
		Adra Alara Alina Amarien Aria Calassa Aucanna Castennia Castina Cela Celadora Corina Cora Coraline Eilis Eilisabet Erella Erela Galina Galinda 
		Laurenne Lianne Madalein Maria Marianna Mariana Marianne Marien Marina Nara Reanna Thalia Varina Varinna Arabella Margery Cecille Kerstin Alisanne Isobel 
		Isabel Isabella Adeline Amina Aldresia Sofie Sofia Constance Eleanore Valence Emilie Gisele Athana


		Ana Borena Chiora Dedika Elene Eliso Gulisa Gulvardi Gvantsa Ia Judjuna
		Kekela Lamara Lela Mariami Mathiko Mthvarisa Natia Nino Sanatha Shorena
		Tamari Tinatini Tsiala

		Adosinda Argilo Cixillo Cruesa Egilona Eldonza Elduara Elvira Flamula Fronidle Gaudiosa Gonterote Gothina Paterna Patruina Ralindis
		Ricilo Sibilia Theodora Urraca

		#Vanilla - more "modern" Polish Arannese
		Angiezka BoZ_ena Branislava Dagmar Danuta Dobrava Dobroniega Dobroslava Dorota Dragomira Edyta Eva Geira Gertruda
		Gracja Halina Hanna Irena Izabela Jarmila Jolanta Judyta Kamila Katarina Kenna Kornelia Krystyna Ksenia Lidia
		Ludmila Magda Magdalena Marcelina Maria Martyna Matylda Milena
		Raina Regelinda Rycheza Salomea Stefana UrS_ula VA_clava VE_ra Woislava Zofia Zvinislava
	}

	dynasty_of_location_prefix = "dynnp_sil"

	# Chance of male children being named after their paternal or maternal grandfather, or their father. Sum must not exceed 100.
	pat_grf_name_chance = 50
	mat_grf_name_chance = 5
	father_name_chance = 10
	
	# Chance of female children being named after their paternal or maternal grandmother, or their mother. Sum must not exceed 100.
	pat_grm_name_chance = 10
	mat_grm_name_chance = 50
	mother_name_chance = 5
}


name_list_carnetori = {
	dynasty_names = {
		dynn_Pattensen
		dynn_Schneider
		dynn_Theodericing
		dynn_Richfriding
		dynn_Abonid
		dynn_Smeldiging
		dynn_Unwanid
		dynn_Hessing
	}
	
	
	male_names = {	

		#This is from Lorentish btw
		Adrien Aedan Alan Alar Aldrien Alfrond Alor Alwen Anton Arnalt Arthel
		Bastian Beltram
		Benabic Bernead Bledric Bledros Blethin Blethiut
		Bodan Bran Branhucar Branoc
		Brient Brigualt Brioc Cadan
		Cadaouen Cadarvan Cadoc Cador Caradec Caradoc Carantoc
		Deniel Denis Deroch Derrien Domuel
		Edern Edouart Eguen Erouan
		Even Evrard Farinmael Ferant Fracan
		Geofroi Gereint Gestin
		Hamon Hedyn Heranal Herri Hesdren
		Iacob Iarcun
		Lorens Louenan Loumarch LouI_s Maelcon 
		Mauric
		Mermin Meugan Meven Michel Morcant Morvan
		Mortiern Neven Nicolas Nodethael Oliuer Padric Paol
		Patern Piran Prigent Ralf Raoul Renan Resmen Riacet
		Ribald Ricart Riceneu Rihouen Rinduran Rioc Riol Riuallon Rodric
		Rolland Ronan Roucen Rumon Salenn
		Samuel Stefen Sulgen Sulmonoc Sultiern Talan
		Teudur Tibault Tiernan Tiernoc Treveur Tristan Tuduallon Tudur
		Urbien Uther Vincenne

		#New
		Crege Taliesin Galien Marven
	}
	female_names = {


		Abrelda Adela AdelaI_da Aeluit Agnes Alana Alis
		Andrea Anna Aourcen Aouren
		Artaca Avenie Beladora Berchet Bertissa Bleutuen Brendana
		Bronuen Buriana Canna Cateline Cecilia Ceinguled Condeleu Constansa
		Cristen Deniela Denise Elara Eleina
		Elena Elwen Emma Ennoguent Enoguen Enora 
		Iofa Iouenna Isabelle Iseult Iudhent Iudlouguen Iudprost Janed Judhael Languoret Leonore Leueer Leuhemel
		Leuoc Maben Magdalene Marguarite Mari Meduil Mona Morganne
		Moruen Moruith Morvana Neulenna Nodguoret Nodiunet Nolwenne Nonne 
		Ronana Rozenn Seva Stefania Steren Sulcar Sulcen Susanne
		Tephaine Thomine Trifine Tristana Uriell


	}

	dynasty_of_location_prefix = "dynnp_of"

	# Chance of male children being named after their paternal or maternal grandfather, or their father. Sum must not exceed 100.
	pat_grf_name_chance = 50
	mat_grf_name_chance = 5
	father_name_chance = 10
	
	# Chance of female children being named after their paternal or maternal grandmother, or their mother. Sum must not exceed 100.
	pat_grm_name_chance = 10
	mat_grm_name_chance = 50
	mother_name_chance = 5
}



name_list_crownsman = {
	dynasty_names = {
		dynn_Pattensen
		dynn_Schneider
		dynn_Theodericing
		dynn_Richfriding
		dynn_Abonid
		dynn_Smeldiging
		dynn_Unwanid
		dynn_Hessing
	}
	
	male_names = {


		#From EU4 - Anbennarian names
		Adran Albert Aldred Alfons Alos Alain Ardan Ardor Aril Artorian Artur Aucan Austyn Awen Borian Brandon Brayan Brayden Calas Casten Castin Corin Daran Darran Elran Erel Eren Erlan Evin Galin Gelman Kalas Laurens Marion Maurise
		Rean Ricain Rion Robin Rogier Sandur Taelar Thiren Tomas Trian Varian Varion Varil Varilor Vincen Willam Avery Arman Tristan Alvar Adelar Andrel Frederic Adrien Adrian Valeran Valen Emil

		#From Vanilla
		Alured Adwen Cadoc Carantoc Fragan Geraint Salenn Selevan Petroc Peran Morcant Eustace

		Abram Abrahil Alaric Ascaric Arvemar Barnard Burchard Ceslin Chararic Clothar Clovis Everard Faroard Euric Feremund 
		Gautmar Guntram Lambert Lothar Marell Raynold Roland Sigeric Tancred

		Adrien Alphonse Clotaire Bertrand Lothaire Raymond Savary Gilles


		#New
		Arrel Lorran Adenn
		Marion Maurise Laurens Cristof
		Damien Damian Devand Darion
		Cressen

		Alenn Alann Lennic Lennard Jon
		Garret Garrett Abram Alan Barnabas Bennett Brandon Branden Brenden Byron Byrne Thorburn Nathaniel

		#New but Alenic
		Alan Albert Alfred Andrew Anselm Arnold Baldrick David Edmund Edward Eric Gilbert
		Gregory Humphrey Liel Mark Martin Matthew Michael Paul
		Randolph Reginald Teague Waleran


	}
	female_names = {
		#From EU4 - Anbennarian names
		Adra Alara Alina Amarien Aria Calassa Aucanna Castennia Castina Cela Celadora Corina Cora Coraline Eilis Eilisabet Erella Erela Galina Galinda 
		Laurenne Lianne Madalein Maria Marianna Mariana Marianne Marien Marina Nara Reanna Thalia Varina Varinna Arabella Margery Cecille Kerstin Alisanne Isobel 
		Isabel Isabella Bella Adeline Amina Willamina Aldresia Sofie Sofia Sybille Constance Eleanore Valence Emilie Gisele Athana

		#Elven Influence Set
		Adra Alara Alina Aria Calassa Castennia Castina Cela Celadora Eilis Eilisabet Erela Galina Galinda Laurenne Lianne Madalein Nara Reanna Thalia
		Verina Riannon

		#New
		Abigail Allison Annabel Belinda Bridget Deidre Heather Meade Melinda Rosamond Sybil 

		#From Vanilla
		Gisela Gisela Bertrada Bertrada Gisela Ida Sophia
		Helene Hemma Judith Ida Susanna
		Claudia
		Alena Fenna Elke 
		Filippa Frida Reynilde Maria Mathilde Oda Odelt Olinde Onna

		Bertilla Bertrada Alda Aldegonde Celsa Aliberta Dagena Fastrada

	}
	
	dynasty_of_location_prefix = "dynnp_sil"


	# Chance of male children being named after their paternal or maternal grandfather, or their father. Sum must not exceed 100.
	pat_grf_name_chance = 60
	mat_grf_name_chance = 10
	father_name_chance = 10
	
	# Chance of female children being named after their paternal or maternal grandmother, or their mother. Sum must not exceed 100.
	pat_grm_name_chance = 10
	mat_grm_name_chance = 60
	mother_name_chance = 10
}


name_list_arbarani = {
	dynasty_names = {
		dynn_Pattensen
		dynn_Schneider
		dynn_Theodericing
		dynn_Richfriding
		dynn_Abonid
		dynn_Smeldiging
		dynn_Unwanid
		dynn_Hessing
	}
	male_names = {
		#From EU4 - Anbennarian names
		Adran Albert Aldred Alfons Alos Alain Ardan Ardor Aril Artorian Artur Aucan Austyn Awen Borian Brandon Brayan Brayden Calas Casten Castin Corin Daran Darran Elran Erel Eren Erlan Evin Galin Gelman Kalas Laurens Marion Maurise
		Rean Ricain Rion Robin Rogier Sandur Taelar Thiren Tomas Trian Varian Varion Varil Varilor Vincen Willam Avery Arman Tristan Alvar Adelar Andrel Frederic Adrien Adrian Valeran Valen Emil

		#From Vanilla
		Alured Adwen Cadoc Carantoc Fragan Geraint Salenn Selevan Petroc Peran Morcant Eustace

		Abram Abrahil Alaric Ascaric Arvemar Barnard Burchard Ceslin Chararic Clothar Clovis Everard Faroard Euric Feremund 
		Gautmar Guntram Lambert Lothar Marell Raynold Roland Sigeric Tancred

		Adrien Alphonse Clotaire Bertrand Lothaire Raymond Savary Gilles

		#From Vanilla - Castrllyrian
		Alaric Clotaire
		Bertold Bertram
		Kaspar Konrad Arnold Arnulf
		Avin Bernhard
		Willem Alwin Barend Egmund Hugo Roland Leuderic
		Ceslin Chlothar


		#New
		Arrel Lorran Adenn
		Marion Maurise Laurens Cristof
		Damien Damian Devand Darion
		Cressen

		Alenn Alann Lennic Lennard Jon
		Garret Garrett Abram Alan Barnabas Bennett Brandon Branden Brenden Byron Byrne Thorburn Nathaniel

		#New but Alenic
		Alan Albert Alfred Andrew Anselm Arnold Baldrick David Edmund Edward Eric Gilbert
		Gregory Humphrey Liel Mark Martin Matthew Michael Paul
		Randolph Reginald Teague Waleran


	}
	female_names = {
		#From EU4 - Anbennarian names
		Adra Alara Alina Amarien Aria Calassa Aucanna Castennia Castina Cela Celadora Corina Cora Coraline Eilis Eilisabet Erella Erela Galina Galinda 
		Laurenne Lianne Madalein Maria Marianna Mariana Marianne Marien Marina Nara Reanna Thalia Varina Varinna Arabella Margery Cecille Kerstin Alisanne Isobel 
		Isabel Isabella Bella Adeline Amina Willamina Aldresia Sofie Sofia Sybille Constance Eleanore Valence Emilie Gisele Athana

		#Elven Influence Set
		Adra Alara Alina Aria Calassa Castennia Castina Cela Celadora Eilis Eilisabet Erela Galina Galinda Laurenne Lianne Madalein Nara Reanna Thalia
		Verina Riannon

		#From Vanilla
		Bertrada Bertilla Gisela Ida Sophia
		Helene Judith Ida Susanna
		Claudia Christine Ursula
		Alena Fenna Elke 
		Filippa Frida Reynilde Maria Mathilde

		#New
		Abigail Allison Annabel Belinda Bridget Deidre Heather Meade Melinda Rosamond Sybil 

		#From Vanilla
		Gisela Gisela Bertrada Bertrada Gisela Ida Sophia
		Helene Hemma Judith Ida Susanna
		Claudia
		Alena Fenna Elke 
		Filippa Frida Reynilde Maria Mathilde Oda Odelt Olinde Onna

		Bertilla Bertrada Alda Aldegonde Celsa Aliberta Dagena Fastrada

	}
	
	dynasty_of_location_prefix = "dynnp_sil"


	# Chance of male children being named after their paternal or maternal grandfather, or their father. Sum must not exceed 100.
	pat_grf_name_chance = 60
	mat_grf_name_chance = 10
	father_name_chance = 10
	
	# Chance of female children being named after their paternal or maternal grandmother, or their mother. Sum must not exceed 100.
	pat_grm_name_chance = 10
	mat_grm_name_chance = 60
	mother_name_chance = 10
}