480 = {

    # Misc
    culture = irsmahapan
    religion = khetarchy
	holding = castle_holding

    # History
}

481 = {

    # Misc
    culture = irsmahapan
    religion = khetarchy
	holding = castle_holding

    # History
}

482 = {

    # Misc
    culture = irsmahapan
    religion = khetarchy
	holding = castle_holding

    # History
}

483 = {

    # Misc
    culture = irsmahapan
    religion = khetarchy
	holding = castle_holding

    # History
}

484 = {

    # Misc
    culture = irsmahapan
    religion = khetarchy
	holding = castle_holding

    # History
}

486 = {

    # Misc
    culture = irsmahapan
    religion = khetarchy
	holding = castle_holding

    # History
}

487 = {

    # Misc
    culture = irsmahapan
    religion = khetarchy
	holding = castle_holding

    # History
}

5676 = {

    # Misc
    culture = irsmahapan
    religion = khetarchy
	holding = castle_holding

    # History
}

5478 = {

    # Misc
    culture = irsmahapan
    religion = khetarchy
	holding = castle_holding

    # History

}

5479 = {

    # Misc
    culture = irsmahapan
    religion = khetarchy
	holding = castle_holding

    # History

}

5480 = {

    # Misc
    culture = irsmahapan
    religion = khetarchy
	holding = castle_holding

    # History

}
6090 = {

    # Misc
    culture = irsmahapan
    religion = khetarchy
	holding = castle_holding

    # History
}